…
```
## The following object is masked from 'package:magrittr':
## 
##     set_names
```

```r
library(ggplot2) # good lookin' plots
spp_mods <- feather::read_feather("./data/grasslands_data")

spp_mods
```

```
## # A tibble: 3,874 × 24
##    transect_number quadrat         species percent_cover origin
##             <fctr>  <fctr>          <fctr>         <dbl>  <chr>
## 1                1       4 acaena echinata           1.0      N
## 2                1       9 acaena echinata           5.0      N
## 3                2       7 acaena echinata           2.0      N
## 4                2       9 acaena echinata           0.5      N
## 5                5       2 acaena echinata           0.5      N
## 6                5       4 acaena echinata           0.5      N
## 7                7       4 acaena echinata           1.0      N
## 8               11       3 acaena echinata           0.5      N
## 9               11       8 acaena echinata           2.0      N
## 10              12       4 acaena echinata           2.0      N
## # ... with 3,864 more rows, and 19 more variables: growth_form <chr>,
## #   type <fctr>, size <dbl>, date <date>, orientation <chr>,
## #   assistant <chr>, management <fctr>, burn_season <fctr>,
## #   years_since <dbl>, biomass_reduction_year <dbl>,
## #   management_unit <fctr>, BG_pc <dbl>, E_pc <dbl>, NF_pc <dbl>,
## #   NG_pc <dbl>, BG_diversity <dbl>, E_diversity <dbl>,
## #   NF_diversity <dbl>, NG_diversity <dbl>
```
…
### nest the data: list-columns


```r
spp_mods <-
        spp_mods %>%
        group_by(species, type) %>%
        nest()
spp_mods
```

```
## # A tibble: 94 × 3
##                  species   type                data
##                   <fctr> <fctr>              <list>
## 1        acaena echinata     NF  <tibble [35 × 22]>
## 2    agrostis capillaris      E   <tibble [2 × 22]>
## 3      aira caryophyllea      E <tibble [214 × 22]>
## 4     anagallis arvensis      E   <tibble [8 × 22]>
## 5  anthoxanthum odoratum      E  <tibble [29 × 22]>
## 6   arctotheca calendula      E  <tibble [26 × 22]>
## 7  arthropodium strictum     NG  <tibble [14 × 22]>
## 8      asperula conferta     NF  <tibble [37 × 22]>
## 9       austrostipa spp.     NG <tibble [143 × 22]>
## 10 avena fatua / barbata      E <tibble [104 × 22]>
## # ... with 84 more rows
```
…
```r
species_model <- function(dataframe){
        lm(percent_cover ~ BG_pc + E_pc + E_diversity + management, data = dataframe)
}

spp_mods <-
        spp_mods %>%
        mutate(model = purrr::map(data, species_model))
spp_mods
```

```
## # A tibble: 94 × 4
##                  species   type                data    model
##                   <fctr> <fctr>              <list>   <list>
## 1        acaena echinata     NF  <tibble [35 × 22]> <S3: lm>
## 2    agrostis capillaris      E   <tibble [2 × 22]> <S3: lm>
## 3      aira caryophyllea      E <tibble [214 × 22]> <S3: lm>
## 4     anagallis arvensis      E   <tibble [8 × 22]> <S3: lm>
## 5  anthoxanthum odoratum      E  <tibble [29 × 22]> <S3: lm>
## 6   arctotheca calendula      E  <tibble [26 × 22]> <S3: lm>
## 7  arthropodium strictum     NG  <tibble [14 × 22]> <S3: lm>
## 8      asperula conferta     NF  <tibble [37 × 22]> <S3: lm>
## 9       austrostipa spp.     NG <tibble [143 × 22]> <S3: lm>
## 10 avena fatua / barbata      E <tibble [104 × 22]> <S3: lm>
## # ... with 84 more rows
```
…
```
## Warning in stats::summary.lm(x): essentially perfect fit: summary may be
## unreliable
```

```r
spp_mods
```

```
## # A tibble: 94 × 7
##                  species   type                data    model
##                   <fctr> <fctr>              <list>   <list>
## 1        acaena echinata     NF  <tibble [35 × 22]> <S3: lm>
## 2    agrostis capillaris      E   <tibble [2 × 22]> <S3: lm>
## 3      aira caryophyllea      E <tibble [214 × 22]> <S3: lm>
## 4     anagallis arvensis      E   <tibble [8 × 22]> <S3: lm>
## 5  anthoxanthum odoratum      E  <tibble [29 × 22]> <S3: lm>
## 6   arctotheca calendula      E  <tibble [26 × 22]> <S3: lm>
## 7  arthropodium strictum     NG  <tibble [14 × 22]> <S3: lm>
## 8      asperula conferta     NF  <tibble [37 × 22]> <S3: lm>
## 9       austrostipa spp.     NG <tibble [143 × 22]> <S3: lm>
## 10 avena fatua / barbata      E <tibble [104 × 22]> <S3: lm>
## # ... with 84 more rows, and 3 more variables: coefs <list>,
## #   fitted_vals <list>, model_stats <list>
```

Viewing tools for nested data frames are not great, yet:

```r
spp_mods %>% unnest(coefs)
```

```
## # A tibble: 496 × 7
##                species   type         term    estimate  std.error
##                 <fctr> <fctr>        <chr>       <dbl>      <dbl>
## 1      acaena echinata     NF  (Intercept)  1.11368262 1.26623923
## 2      acaena echinata     NF        BG_pc -0.01068846 0.02440987
## 3      acaena echinata     NF         E_pc -0.06427369 0.08415713
## 4      acaena echinata     NF  E_diversity  0.12936585 0.09831467
## 5      acaena echinata     NF managementWC -0.06949835 0.47501630
## 6  agrostis capillaris      E  (Intercept)  6.45454545        NaN
## 7  agrostis capillaris      E        BG_pc -0.13636364        NaN
## 8    aira caryophyllea      E  (Intercept) -3.16088492 2.17305649
## 9    aira caryophyllea      E        BG_pc -0.01884276 0.02679557
## 10   aira caryophyllea      E         E_pc  0.62527993 0.14280374
## # ... with 486 more rows, and 2 more variables: statistic <dbl>,
## #   p.value <dbl>
```

```r
spp_mods %>% unnest(fitted_vals)
```

```
## Warning in bind_rows_(x, .id): Unequal factor levels: coercing to character
```

```
## # A tibble: 3,874 × 14
##            species   type percent_cover BG_pc       E_pc E_diversity
##             <fctr> <fctr>         <dbl> <dbl>      <dbl>       <dbl>
## 1  acaena echinata     NF           1.0    26  0.6666667           3
## 2  acaena echinata     NF           5.0    35  2.4000000           5
## 3  acaena echinata     NF           2.0    55  3.0000000           4
## 4  acaena echinata     NF           0.5    33 13.7500000           4
## 5  acaena echinata     NF           0.5    45  0.5000000           3
## 6  acaena echinata     NF           0.5    18  1.3750000           4
## 7  acaena echinata     NF           1.0    25  2.4166667           6
## 8  acaena echinata     NF           0.5    42  1.2500000           6
## 9  acaena echinata     NF           2.0    22  1.3333333           6
## 10 acaena echinata     NF           2.0    38  2.0000000           7
## # ... with 3,864 more rows, and 8 more variables: management <chr>,
## #   .fitted <dbl>, .se.fit <dbl>, .resid <dbl>, .hat <dbl>, .sigma <dbl>,
## #   .cooksd <dbl>, .std.resid <dbl>
```

```r
spp_mods %>% unnest(model_stats)
```

```
## # A tibble: 94 × 17
##                  species   type                data    model
##                   <fctr> <fctr>              <list>   <list>
## 1        acaena echinata     NF  <tibble [35 × 22]> <S3: lm>
## 2    agrostis capillaris      E   <tibble [2 × 22]> <S3: lm>
## 3      aira caryophyllea      E <tibble [214 × 22]> <S3: lm>
## 4     anagallis arvensis      E   <tibble [8 × 22]> <S3: lm>
## 5  anthoxanthum odoratum      E  <tibble [29 × 22]> <S3: lm>
## 6   arctotheca calendula      E  <tibble [26 × 22]> <S3: lm>
## 7  arthropodium strictum     NG  <tibble [14 × 22]> <S3: lm>
## 8      asperula conferta     NF  <tibble [37 × 22]> <S3: lm>
## 9       austrostipa spp.     NG <tibble [143 × 22]> <S3: lm>
## 10 avena fatua / barbata      E <tibble [104 × 22]> <S3: lm>
## # ... with 84 more rows, and 13 more variables: coefs <list>,
## #   fitted_vals <list>, r.squared <dbl>, adj.r.squared <dbl>, sigma <dbl>,
## #   statistic <dbl>, p.value <dbl>, df <int>, logLik <dbl>, AIC <dbl>,
## #   BIC <dbl>, deviance <dbl>, df.residual <int>
```
…
